재실감지 프로젝트 보고서 - 4 Modeling
…
       'Positive' Class : detection      

pred_prob <- predict(lr_gridsearch,test,type='prob') %>% 
  bind_cols(test %>% select(occupancy))
pred_prob 

# A tibble: 684 × 3
   .pred_detection .pred_non_detection occupancy
             <dbl>               <dbl> <fct>    
 1           0.927              0.0727 detection
 2           0.924              0.0764 detection
 3           0.919              0.0810 detection
 4           0.915              0.0847 detection
 5           0.912              0.0884 detection
 6           0.955              0.0452 detection
 7           0.954              0.0464 detection
 8           0.952              0.0483 detection
 9           0.950              0.0497 detection
10           0.948              0.0517 detection
# ℹ 674 more rows
…
